simulation/qsim/Atividade11.msim.vcd
$comment
	File created using the following command:
		vcd file Atividade11.msim.vcd -direction
$end
$date
	Tue Sep 24 14:53:06 2019
$end
$version
	ModelSim Version 10.5b
$end
$timescale
	1ps
$end

$scope module atividade11_vhd_vec_tst $end
$var wire 1 ! CLK $end
$var wire 1 " Endereco [4] $end
$var wire 1 # Endereco [3] $end
$var wire 1 $ Endereco [2] $end
$var wire 1 % Endereco [1] $end
$var wire 1 & Endereco [0] $end
$var wire 1 ' FUNC [1] $end
$var wire 1 ( FUNC [0] $end
$var wire 1 ) HabBanco $end
$var wire 1 * HabPc $end
$var wire 1 + Saida_1 [4] $end
$var wire 1 , Saida_1 [3] $end
$var wire 1 - Saida_1 [2] $end
$var wire 1 . Saida_1 [1] $end
$var wire 1 / Saida_1 [0] $end
$var wire 1 0 Saida_2 [4] $end
$var wire 1 1 Saida_2 [3] $end
$var wire 1 2 Saida_2 [2] $end
$var wire 1 3 Saida_2 [1] $end
$var wire 1 4 Saida_2 [0] $end
$var wire 1 5 ULAout [31] $end
$var wire 1 6 ULAout [30] $end
$var wire 1 7 ULAout [29] $end
$var wire 1 8 ULAout [28] $end
$var wire 1 9 ULAout [27] $end
$var wire 1 : ULAout [26] $end
$var wire 1 ; ULAout [25] $end
$var wire 1 < ULAout [24] $end
$var wire 1 = ULAout [23] $end
$var wire 1 > ULAout [22] $end
$var wire 1 ? ULAout [21] $end
$var wire 1 @ ULAout [20] $end
$var wire 1 A ULAout [19] $end
$var wire 1 B ULAout [18] $end
$var wire 1 C ULAout [17] $end
$var wire 1 D ULAout [16] $end
$var wire 1 E ULAout [15] $end
$var wire 1 F ULAout [14] $end
$var wire 1 G ULAout [13] $end
$var wire 1 H ULAout [12] $end
$var wire 1 I ULAout [11] $end
$var wire 1 J ULAout [10] $end
$var wire 1 K ULAout [9] $end
$var wire 1 L ULAout [8] $end
$var wire 1 M ULAout [7] $end
$var wire 1 N ULAout [6] $end
$var wire 1 O ULAout [5] $end
$var wire 1 P ULAout [4] $end
$var wire 1 Q ULAout [3] $end
$var wire 1 R ULAout [2] $end
$var wire 1 S ULAout [1] $end
$var wire 1 T ULAout [0] $end

$scope module i1 $end
$var wire 1 U gnd $end
$var wire 1 V vcc $end
$var wire 1 W unknown $end
$var wire 1 X devoe $end
$var wire 1 Y devclrn $end
$var wire 1 Z devpor $end
$var wire 1 [ ww_devoe $end
$var wire 1 \ ww_devclrn $end
$var wire 1 ] ww_devpor $end
$var wire 1 ^ ww_HabPc $end
$var wire 1 _ ww_HabBanco $end
$var wire 1 ` ww_CLK $end
$var wire 1 a ww_FUNC [1] $end
$var wire 1 b ww_FUNC [0] $end
$var wire 1 c ww_Endereco [4] $end
$var wire 1 d ww_Endereco [3] $end
$var wire 1 e ww_Endereco [2] $end
$var wire 1 f ww_Endereco [1] $end
$var wire 1 g ww_Endereco [0] $end
$var wire 1 h ww_Saida_1 [4] $end
$var wire 1 i ww_Saida_1 [3] $end
$var wire 1 j ww_Saida_1 [2] $end
$var wire 1 k ww_Saida_1 [1] $end
$var wire 1 l ww_Saida_1 [0] $end
$var wire 1 m ww_Saida_2 [4] $end
$var wire 1 n ww_Saida_2 [3] $end
$var wire 1 o ww_Saida_2 [2] $end
$var wire 1 p ww_Saida_2 [1] $end
$var wire 1 q ww_Saida_2 [0] $end
$var wire 1 r ww_ULAout [31] $end
$var wire 1 s ww_ULAout [30] $end
$var wire 1 t ww_ULAout [29] $end
$var wire 1 u ww_ULAout [28] $end
$var wire 1 v ww_ULAout [27] $end
$var wire 1 w ww_ULAout [26] $end
$var wire 1 x ww_ULAout [25] $end
$var wire 1 y ww_ULAout [24] $end
$var wire 1 z ww_ULAout [23] $end
$var wire 1 { ww_ULAout [22] $end
$var wire 1 | ww_ULAout [21] $end
$var wire 1 } ww_ULAout [20] $end
$var wire 1 ~ ww_ULAout [19] $end
$var wire 1 !! ww_ULAout [18] $end
$var wire 1 "! ww_ULAout [17] $end
$var wire 1 #! ww_ULAout [16] $end
$var wire 1 $! ww_ULAout [15] $end
$var wire 1 %! ww_ULAout [14] $end
$var wire 1 &! ww_ULAout [13] $end
$var wire 1 '! ww_ULAout [12] $end
$var wire 1 (! ww_ULAout [11] $end
$var wire 1 )! ww_ULAout [10] $end
$var wire 1 *! ww_ULAout [9] $end
$var wire 1 +! ww_ULAout [8] $end
$var wire 1 ,! ww_ULAout [7] $end
$var wire 1 -! ww_ULAout [6] $end
$var wire 1 .! ww_ULAout [5] $end
$var wire 1 /! ww_ULAout [4] $end
$var wire 1 0! ww_ULAout [3] $end
$var wire 1 1! ww_ULAout [2] $end
$var wire 1 2! ww_ULAout [1] $end
$var wire 1 3! ww_ULAout [0] $end
$var wire 1 4! \HabPc~input_o\ $end
$var wire 1 5! \CLK~input_o\ $end
$var wire 1 6! \HabBanco~input_o\ $end
$var wire 1 7! \ULAout[0]~output_o\ $end
$var wire 1 8! \ULAout[1]~output_o\ $end
$var wire 1 9! \ULAout[2]~output_o\ $end
$var wire 1 :! \ULAout[3]~output_o\ $end
$var wire 1 ;! \ULAout[4]~output_o\ $end
$var wire 1 <! \ULAout[5]~output_o\ $end
$var wire 1 =! \ULAout[6]~output_o\ $end
$var wire 1 >! \ULAout[7]~output_o\ $end
$var wire 1 ?! \ULAout[8]~output_o\ $end
$var wire 1 @! \ULAout[9]~output_o\ $end
$var wire 1 A! \ULAout[10]~output_o\ $end
$var wire 1 B! \ULAout[11]~output_o\ $end
$var wire 1 C! \ULAout[12]~output_o\ $end
$var wire 1 D! \ULAout[13]~output_o\ $end
$var wire 1 E! \ULAout[14]~output_o\ $end
$var wire 1 F! \ULAout[15]~output_o\ $end
$var wire 1 G! \ULAout[16]~output_o\ $end
$var wire 1 H! \ULAout[17]~output_o\ $end
$var wire 1 I! \ULAout[18]~output_o\ $end
$var wire 1 J! \ULAout[19]~output_o\ $end
$var wire 1 K! \ULAout[20]~output_o\ $end
$var wire 1 L! \ULAout[21]~output_o\ $end
$var wire 1 M! \ULAout[22]~output_o\ $end
$var wire 1 N! \ULAout[23]~output_o\ $end
$var wire 1 O! \ULAout[24]~output_o\ $end
$var wire 1 P! \ULAout[25]~output_o\ $end
$var wire 1 Q! \ULAout[26]~output_o\ $end
$var wire 1 R! \ULAout[27]~output_o\ $end
$var wire 1 S! \ULAout[28]~output_o\ $end
$var wire 1 T! \ULAout[29]~output_o\ $end
$var wire 1 U! \ULAout[30]~output_o\ $end
$var wire 1 V! \ULAout[31]~output_o\ $end
$var wire 1 W! \Saida_1[0]~output_o\ $end
$var wire 1 X! \Saida_1[1]~output_o\ $end
$var wire 1 Y! \Saida_1[2]~output_o\ $end
$var wire 1 Z! \Saida_1[3]~output_o\ $end
$var wire 1 [! \Saida_1[4]~output_o\ $end
$var wire 1 \! \Saida_2[0]~output_o\ $end
$var wire 1 ]! \Saida_2[1]~output_o\ $end
$var wire 1 ^! \Saida_2[2]~output_o\ $end
$var wire 1 _! \Saida_2[3]~output_o\ $end
$var wire 1 `! \Saida_2[4]~output_o\ $end
$var wire 1 a! \FUNC[1]~input_o\ $end
$var wire 1 b! \FUNC[0]~input_o\ $end
$var wire 1 c! \ULA|Equal1~0_combout\ $end
$var wire 1 d! \ULA|Add0~1_cout\ $end
$var wire 1 e! \ULA|Add0~2_combout\ $end
$var wire 1 f! \ULA|Add0~3\ $end
$var wire 1 g! \ULA|Add0~4_combout\ $end
$var wire 1 h! \ULA|Add0~5\ $end
$var wire 1 i! \ULA|Add0~6_combout\ $end
$var wire 1 j! \ULA|Add0~7\ $end
$var wire 1 k! \ULA|Add0~8_combout\ $end
$var wire 1 l! \ULA|Add0~9\ $end
$var wire 1 m! \ULA|Add0~10_combout\ $end
$var wire 1 n! \ULA|Add0~11\ $end
$var wire 1 o! \ULA|Add0~12_combout\ $end
$var wire 1 p! \ULA|Add0~13\ $end
$var wire 1 q! \ULA|Add0~14_combout\ $end
$var wire 1 r! \ULA|Add0~15\ $end
$var wire 1 s! \ULA|Add0~16_combout\ $end
$var wire 1 t! \ULA|Add0~17\ $end
$var wire 1 u! \ULA|Add0~18_combout\ $end
$var wire 1 v! \ULA|Add0~19\ $end
$var wire 1 w! \ULA|Add0~20_combout\ $end
$var wire 1 x! \ULA|Add0~21\ $end
$var wire 1 y! \ULA|Add0~22_combout\ $end
$var wire 1 z! \ULA|Add0~23\ $end
$var wire 1 {! \ULA|Add0~24_combout\ $end
$var wire 1 |! \ULA|Add0~25\ $end
$var wire 1 }! \ULA|Add0~26_combout\ $end
$var wire 1 ~! \ULA|Add0~27\ $end
$var wire 1 !" \ULA|Add0~28_combout\ $end
$var wire 1 "" \ULA|Add0~29\ $end
$var wire 1 #" \ULA|Add0~30_combout\ $end
$var wire 1 $" \ULA|Add0~31\ $end
$var wire 1 %" \ULA|Add0~32_combout\ $end
$var wire 1 &" \ULA|Add0~33\ $end
$var wire 1 '" \ULA|Add0~34_combout\ $end
$var wire 1 (" \ULA|Add0~35\ $end
$var wire 1 )" \ULA|Add0~36_combout\ $end
$var wire 1 *" \ULA|Add0~37\ $end
$var wire 1 +" \ULA|Add0~38_combout\ $end
$var wire 1 ," \ULA|Add0~39\ $end
$var wire 1 -" \ULA|Add0~40_combout\ $end
$var wire 1 ." \ULA|Add0~41\ $end
$var wire 1 /" \ULA|Add0~42_combout\ $end
$var wire 1 0" \ULA|Add0~43\ $end
$var wire 1 1" \ULA|Add0~44_combout\ $end
$var wire 1 2" \ULA|Add0~45\ $end
$var wire 1 3" \ULA|Add0~46_combout\ $end
$var wire 1 4" \ULA|Add0~47\ $end
$var wire 1 5" \ULA|Add0~48_combout\ $end
$var wire 1 6" \ULA|Add0~49\ $end
$var wire 1 7" \ULA|Add0~50_combout\ $end
$var wire 1 8" \ULA|Add0~51\ $end
$var wire 1 9" \ULA|Add0~52_combout\ $end
$var wire 1 :" \ULA|Add0~53\ $end
$var wire 1 ;" \ULA|Add0~54_combout\ $end
$var wire 1 <" \ULA|Add0~55\ $end
$var wire 1 =" \ULA|Add0~56_combout\ $end
$var wire 1 >" \ULA|Add0~57\ $end
$var wire 1 ?" \ULA|Add0~58_combout\ $end
$var wire 1 @" \ULA|Add0~59\ $end
$var wire 1 A" \ULA|Add0~60_combout\ $end
$var wire 1 B" \ULA|Add0~61\ $end
$var wire 1 C" \ULA|Add0~62_combout\ $end
$var wire 1 D" \Endereco[4]~input_o\ $end
$var wire 1 E" \Endereco[3]~input_o\ $end
$var wire 1 F" \Endereco[2]~input_o\ $end
$var wire 1 G" \Endereco[0]~input_o\ $end
$var wire 1 H" \Endereco[1]~input_o\ $end
$var wire 1 I" \ROM|memROM~0_combout\ $end
$var wire 1 J" \ROM|memROM~1_combout\ $end
$var wire 1 K" \ALT_INV_FUNC[1]~input_o\ $end
$upscope $end
$upscope $end
$enddefinitions $end
#0
$dumpvars
1!
1)
x*
0U
1V
xW
1X
1Y
1Z
1[
1\
1]
x^
1_
1`
x4!
15!
16!
07!
08!
09!
0:!
0;!
0<!
0=!
0>!
0?!
0@!
0A!
0B!
0C!
0D!
0E!
0F!
0G!
0H!
0I!
0J!
0K!
0L!
0M!
0N!
0O!
0P!
0Q!
0R!
0S!
0T!
0U!
0V!
0W!
0X!
0Y!
0Z!
0[!
1\!
1]!
0^!
0_!
0`!
0a!
0b!
0c!
0d!
0e!
1f!
0g!
0h!
0i!
1j!
0k!
0l!
0m!
1n!
0o!
0p!
0q!
1r!
0s!
0t!
0u!
1v!
0w!
0x!
0y!
1z!
0{!
0|!
0}!
1~!
0!"
0""
0#"
1$"
0%"
0&"
0'"
1("
0)"
0*"
0+"
1,"
0-"
0."
0/"
10"
01"
02"
03"
14"
05"
06"
07"
18"
09"
0:"
0;"
1<"
0="
0>"
0?"
1@"
0A"
0B"
0C"
0D"
0E"
0F"
0G"
0H"
1I"
1J"
1K"
0"
0#
0$
0%
0&
0'
0(
0+
0,
0-
0.
0/
00
01
02
13
14
05
06
07
08
09
0:
0;
0<
0=
0>
0?
0@
0A
0B
0C
0D
0E
0F
0G
0H
0I
0J
0K
0L
0M
0N
0O
0P
0Q
0R
0S
0T
0a
0b
0c
0d
0e
0f
0g
0h
0i
0j
0k
0l
0m
0n
0o
1p
1q
0r
0s
0t
0u
0v
0w
0x
0y
0z
0{
0|
0}
0~
0!!
0"!
0#!
0$!
0%!
0&!
0'!
0(!
0)!
0*!
0+!
0,!
0-!
0.!
0/!
00!
01!
02!
03!
$end
#10000
0!
0`
05!
#20000
1!
1`
15!
#30000
0!
0`
05!
#40000
1!
1(
1`
1b
1b!
15!
1c!
1d!
1e!
1g!
1i!
1k!
1m!
1o!
1q!
1s!
1u!
1w!
1y!
1{!
1}!
1!"
1#"
1%"
1'"
1)"
1+"
1-"
1/"
11"
13"
15"
17"
19"
1;"
1="
1?"
1A"
1C"
0e!
0f!
0g!
1h!
1V!
1U!
1T!
1S!
1R!
1Q!
1P!
1O!
1N!
1M!
1L!
1K!
1J!
1I!
1H!
1G!
1F!
1E!
1D!
1C!
1B!
1A!
1@!
1?!
1>!
1=!
1<!
1;!
1:!
19!
18!
0i!
0j!
1r
1s
1t
1u
1v
1w
1x
1y
1z
1{
1|
1}
1~
1!!
1"!
1#!
1$!
1%!
1&!
1'!
1(!
1)!
1*!
1+!
1,!
1-!
1.!
1/!
10!
11!
12!
08!
1S
1R
1Q
1P
1O
1N
1M
1L
1K
1J
1I
1H
1G
1F
1E
1D
1C
1B
1A
1@
1?
1>
1=
1<
1;
1:
19
18
17
16
15
0k!
1l!
02!
09!
0S
0m!
0n!
01!
0:!
0R
0o!
1p!
00!
0;!
0Q
0q!
0r!
0/!
0<!
0P
0s!
1t!
0.!
0=!
0O
0u!
0v!
0-!
0>!
0N
0w!
1x!
0,!
0?!
0M
0y!
0z!
0+!
0@!
0L
0{!
1|!
0*!
0A!
0K
0}!
0~!
0)!
0B!
0J
0!"
1""
0(!
0C!
0I
0#"
0$"
0'!
0D!
0H
0%"
1&"
0&!
0E!
0G
0'"
0("
0%!
0F!
0F
0)"
1*"
0$!
0G!
0E
0+"
0,"
0#!
0H!
0D
0-"
1."
0"!
0I!
0C
0/"
00"
0!!
0J!
0B
01"
12"
0~
0K!
0A
03"
04"
0}
0L!
0@
05"
16"
0|
0M!
0?
07"
08"
0{
0N!
0>
09"
1:"
0z
0O!
0=
0;"
0<"
0y
0P!
0<
0="
1>"
0x
0Q!
0;
0?"
0@"
0w
0R!
0:
0A"
1B"
0v
0S!
09
0C"
0u
0T!
08
0t
0U!
07
0s
0V!
06
0r
05
#50000
0!
0`
05!
#60000
1!
1`
15!
#70000
0!
0`
05!
#80000
1!
0(
1'
1`
0b
1a
1a!
0b!
15!
0K"
z7!
z8!
z9!
z:!
z;!
z<!
z=!
z>!
z?!
z@!
zA!
zB!
zC!
zD!
zE!
zF!
zG!
zH!
zI!
zJ!
zK!
zL!
zM!
zN!
zO!
zP!
zQ!
zR!
zS!
zT!
zU!
zV!
z3!
z2!
z1!
z0!
z/!
z.!
z-!
z,!
z+!
z*!
z)!
z(!
z'!
z&!
z%!
z$!
z#!
z"!
z!!
z~
z}
z|
z{
zz
zy
zx
zw
zv
zu
zt
zs
zr
zT
zS
zR
zQ
zP
zO
zN
zM
zL
zK
zJ
zI
zH
zG
zF
zE
zD
zC
zB
zA
z@
z?
z>
z=
z<
z;
z:
z9
z8
z7
z6
z5
#90000
0!
0`
05!
#100000
1!
1`
15!
#110000
0!
0`
05!
#120000
1!
1(
1`
1b
1b!
15!
#130000
0!
0`
05!
#140000
1!
1`
15!
#150000
0!
0`
05!
#160000
1!
0(
0'
1`
0b
0a
0a!
0b!
15!
1K"
0c!
0d!
1e!
1f!
1g!
0h!
1i!
1j!
1k!
0l!
1m!
1n!
1o!
0p!
1q!
1r!
1s!
0t!
1u!
1v!
1w!
0x!
1y!
1z!
1{!
0|!
1}!
1~!
1!"
0""
1#"
1$"
1%"
0&"
1'"
1("
1)"
0*"
1+"
1,"
1-"
0."
1/"
10"
11"
02"
13"
14"
15"
06"
17"
18"
19"
0:"
1;"
1<"
1="
0>"
1?"
1@"
1A"
0B"
1C"
07!
08!
09!
0:!
0;!
0<!
0=!
0>!
0?!
0@!
0A!
0B!
0C!
0D!
0E!
0F!
0G!
0H!
0I!
0J!
0K!
0L!
0M!
0N!
0O!
0P!
0Q!
0R!
0S!
0T!
0U!
0V!
0C"
0A"
0?"
0="
0;"
09"
07"
05"
03"
01"
0/"
0-"
0+"
0)"
0'"
0%"
0#"
0!"
0}!
0{!
0y!
0w!
0u!
0s!
0q!
0o!
0m!
0k!
0i!
0g!
0e!
03!
02!
01!
00!
0/!
0.!
0-!
0,!
0+!
0*!
0)!
0(!
0'!
0&!
0%!
0$!
0#!
0"!
0!!
0~
0}
0|
0{
0z
0y
0x
0w
0v
0u
0t
0s
0r
0T
0S
0R
0Q
0P
0O
0N
0M
0L
0K
0J
0I
0H
0G
0F
0E
0D
0C
0B
0A
0@
0?
0>
0=
0<
0;
0:
09
08
07
06
05
1V!
1U!
1T!
1S!
1R!
1Q!
1P!
1O!
1N!
1M!
1L!
1K!
1J!
1I!
1H!
1G!
1F!
1E!
1D!
1C!
1B!
1A!
1@!
1?!
1>!
1=!
1<!
1;!
1:!
19!
18!
1r
1s
1t
1u
1v
1w
1x
1y
1z
1{
1|
1}
1~
1!!
1"!
1#!
1$!
1%!
1&!
1'!
1(!
1)!
1*!
1+!
1,!
1-!
1.!
1/!
10!
11!
12!
08!
09!
0:!
0;!
0<!
0=!
0>!
0?!
0@!
0A!
0B!
0C!
0D!
0E!
0F!
0G!
0H!
0I!
0J!
0K!
0L!
0M!
0N!
0O!
0P!
0Q!
0R!
0S!
0T!
0U!
0V!
1S
1R
1Q
1P
1O
1N
1M
1L
1K
1J
1I
1H
1G
1F
1E
1D
1C
1B
1A
1@
1?
1>
1=
1<
1;
1:
19
18
17
16
15
02!
01!
00!
0/!
0.!
0-!
0,!
0+!
0*!
0)!
0(!
0'!
0&!
0%!
0$!
0#!
0"!
0!!
0~
0}
0|
0{
0z
0y
0x
0w
0v
0u
0t
0s
0r
0S
0R
0Q
0P
0O
0N
0M
0L
0K
0J
0I
0H
0G
0F
0E
0D
0C
0B
0A
0@
0?
0>
0=
0<
0;
0:
09
08
07
06
05
#170000
0!
0`
05!
#180000
1!
1`
15!
#190000
0!
0`
05!
#200000
1!
1(
1`
1b
1b!
15!
1c!
1d!
1e!
1g!
1i!
1k!
1m!
1o!
1q!
1s!
1u!
1w!
1y!
1{!
1}!
1!"
1#"
1%"
1'"
1)"
1+"
1-"
1/"
11"
13"
15"
17"
19"
1;"
1="
1?"
1A"
1C"
0e!
0f!
0g!
1h!
1V!
1U!
1T!
1S!
1R!
1Q!
1P!
1O!
1N!
1M!
1L!
1K!
1J!
1I!
1H!
1G!
1F!
1E!
1D!
1C!
1B!
1A!
1@!
1?!
1>!
1=!
1<!
1;!
1:!
19!
18!
0i!
0j!
1r
1s
1t
1u
1v
1w
1x
1y
1z
1{
1|
1}
1~
1!!
1"!
1#!
1$!
1%!
1&!
1'!
1(!
1)!
1*!
1+!
1,!
1-!
1.!
1/!
10!
11!
12!
08!
1S
1R
1Q
1P
1O
1N
1M
1L
1K
1J
1I
1H
1G
1F
1E
1D
1C
1B
1A
1@
1?
1>
1=
1<
1;
1:
19
18
17
16
15
0k!
1l!
02!
09!
0S
0m!
0n!
01!
0:!
0R
0o!
1p!
00!
0;!
0Q
0q!
0r!
0/!
0<!
0P
0s!
1t!
0.!
0=!
0O
0u!
0v!
0-!
0>!
0N
0w!
1x!
0,!
0?!
0M
0y!
0z!
0+!
0@!
0L
0{!
1|!
0*!
0A!
0K
0}!
0~!
0)!
0B!
0J
0!"
1""
0(!
0C!
0I
0#"
0$"
0'!
0D!
0H
0%"
1&"
0&!
0E!
0G
0'"
0("
0%!
0F!
0F
0)"
1*"
0$!
0G!
0E
0+"
0,"
0#!
0H!
0D
0-"
1."
0"!
0I!
0C
0/"
00"
0!!
0J!
0B
01"
12"
0~
0K!
0A
03"
04"
0}
0L!
0@
05"
16"
0|
0M!
0?
07"
08"
0{
0N!
0>
09"
1:"
0z
0O!
0=
0;"
0<"
0y
0P!
0<
0="
1>"
0x
0Q!
0;
0?"
0@"
0w
0R!
0:
0A"
1B"
0v
0S!
09
0C"
0u
0T!
08
0t
0U!
07
0s
0V!
06
0r
05
#210000
0!
0`
05!
#220000
1!
1`
15!
#230000
0!
0`
05!
#240000
1!
0(
1'
1`
0b
1a
1a!
0b!
15!
0K"
z7!
z8!
z9!
z:!
z;!
z<!
z=!
z>!
z?!
z@!
zA!
zB!
zC!
zD!
zE!
zF!
zG!
zH!
zI!
zJ!
zK!
zL!
zM!
zN!
zO!
zP!
zQ!
zR!
zS!
zT!
zU!
zV!
z3!
z2!
z1!
z0!
z/!
z.!
z-!
z,!
z+!
z*!
z)!
z(!
z'!
z&!
z%!
z$!
z#!
z"!
z!!
z~
z}
z|
z{
zz
zy
zx
zw
zv
zu
zt
zs
zr
zT
zS
zR
zQ
zP
zO
zN
zM
zL
zK
zJ
zI
zH
zG
zF
zE
zD
zC
zB
zA
z@
z?
z>
z=
z<
z;
z:
z9
z8
z7
z6
z5
#250000
0!
0`
05!
#260000
1!
1`
15!
#270000
0!
0`
05!
#280000
1!
1(
1`
1b
1b!
15!
#290000
0!
0`
05!
#300000
1!
1`
15!
#310000
0!
0`
05!
#320000
1!
0(
0'
1`
0b
0a
0a!
0b!
15!
1K"
0c!
0d!
1e!
1f!
1g!
0h!
1i!
1j!
1k!
0l!
1m!
1n!
1o!
0p!
1q!
1r!
1s!
0t!
1u!
1v!
1w!
0x!
1y!
1z!
1{!
0|!
1}!
1~!
1!"
0""
1#"
1$"
1%"
0&"
1'"
1("
1)"
0*"
1+"
1,"
1-"
0."
1/"
10"
11"
02"
13"
14"
15"
06"
17"
18"
19"
0:"
1;"
1<"
1="
0>"
1?"
1@"
1A"
0B"
1C"
07!
08!
09!
0:!
0;!
0<!
0=!
0>!
0?!
0@!
0A!
0B!
0C!
0D!
0E!
0F!
0G!
0H!
0I!
0J!
0K!
0L!
0M!
0N!
0O!
0P!
0Q!
0R!
0S!
0T!
0U!
0V!
0C"
0A"
0?"
0="
0;"
09"
07"
05"
03"
01"
0/"
0-"
0+"
0)"
0'"
0%"
0#"
0!"
0}!
0{!
0y!
0w!
0u!
0s!
0q!
0o!
0m!
0k!
0i!
0g!
0e!
03!
02!
01!
00!
0/!
0.!
0-!
0,!
0+!
0*!
0)!
0(!
0'!
0&!
0%!
0$!
0#!
0"!
0!!
0~
0}
0|
0{
0z
0y
0x
0w
0v
0u
0t
0s
0r
0T
0S
0R
0Q
0P
0O
0N
0M
0L
0K
0J
0I
0H
0G
0F
0E
0D
0C
0B
0A
0@
0?
0>
0=
0<
0;
0:
09
08
07
06
05
1V!
1U!
1T!
1S!
1R!
1Q!
1P!
1O!
1N!
1M!
1L!
1K!
1J!
1I!
1H!
1G!
1F!
1E!
1D!
1C!
1B!
1A!
1@!
1?!
1>!
1=!
1<!
1;!
1:!
19!
18!
1r
1s
1t
1u
1v
1w
1x
1y
1z
1{
1|
1}
1~
1!!
1"!
1#!
1$!
1%!
1&!
1'!
1(!
1)!
1*!
1+!
1,!
1-!
1.!
1/!
10!
11!
12!
08!
09!
0:!
0;!
0<!
0=!
0>!
0?!
0@!
0A!
0B!
0C!
0D!
0E!
0F!
0G!
0H!
0I!
0J!
0K!
0L!
0M!
0N!
0O!
0P!
0Q!
0R!
0S!
0T!
0U!
0V!
1S
1R
1Q
1P
1O
1N
1M
1L
1K
1J
1I
1H
1G
1F
1E
1D
1C
1B
1A
1@
1?
1>
1=
1<
1;
1:
19
18
17
16
15
02!
01!
00!
0/!
0.!
0-!
0,!
0+!
0*!
0)!
0(!
0'!
0&!
0%!
0$!
0#!
0"!
0!!
0~
0}
0|
0{
0z
0y
0x
0w
0v
0u
0t
0s
0r
0S
0R
0Q
0P
0O
0N
0M
0L
0K
0J
0I
0H
0G
0F
0E
0D
0C
0B
0A
0@
0?
0>
0=
0<
0;
0:
09
08
07
06
05
#330000
0!
0`
05!
#340000
1!
1`
15!
#350000
0!
0`
05!
#360000
1!
1(
1`
1b
1b!
15!
1c!
1d!
1e!
1g!
1i!
1k!
1m!
1o!
1q!
1s!
1u!
1w!
1y!
1{!
1}!
1!"
1#"
1%"
1'"
1)"
1+"
1-"
1/"
11"
13"
15"
17"
19"
1;"
1="
1?"
1A"
1C"
0e!
0f!
0g!
1h!
1V!
1U!
1T!
1S!
1R!
1Q!
1P!
1O!
1N!
1M!
1L!
1K!
1J!
1I!
1H!
1G!
1F!
1E!
1D!
1C!
1B!
1A!
1@!
1?!
1>!
1=!
1<!
1;!
1:!
19!
18!
0i!
0j!
1r
1s
1t
1u
1v
1w
1x
1y
1z
1{
1|
1}
1~
1!!
1"!
1#!
1$!
1%!
1&!
1'!
1(!
1)!
1*!
1+!
1,!
1-!
1.!
1/!
10!
11!
12!
08!
1S
1R
1Q
1P
1O
1N
1M
1L
1K
1J
1I
1H
1G
1F
1E
1D
1C
1B
1A
1@
1?
1>
1=
1<
1;
1:
19
18
17
16
15
0k!
1l!
02!
09!
0S
0m!
0n!
01!
0:!
0R
0o!
1p!
00!
0;!
0Q
0q!
0r!
0/!
0<!
0P
0s!
1t!
0.!
0=!
0O
0u!
0v!
0-!
0>!
0N
0w!
1x!
0,!
0?!
0M
0y!
0z!
0+!
0@!
0L
0{!
1|!
0*!
0A!
0K
0}!
0~!
0)!
0B!
0J
0!"
1""
0(!
0C!
0I
0#"
0$"
0'!
0D!
0H
0%"
1&"
0&!
0E!
0G
0'"
0("
0%!
0F!
0F
0)"
1*"
0$!
0G!
0E
0+"
0,"
0#!
0H!
0D
0-"
1."
0"!
0I!
0C
0/"
00"
0!!
0J!
0B
01"
12"
0~
0K!
0A
03"
04"
0}
0L!
0@
05"
16"
0|
0M!
0?
07"
08"
0{
0N!
0>
09"
1:"
0z
0O!
0=
0;"
0<"
0y
0P!
0<
0="
1>"
0x
0Q!
0;
0?"
0@"
0w
0R!
0:
0A"
1B"
0v
0S!
09
0C"
0u
0T!
08
0t
0U!
07
0s
0V!
06
0r
05
#370000
0!
0`
05!
#380000
1!
1`
15!
#390000
0!
0`
05!
#400000
1!
0(
1'
1`
0b
1a
1a!
0b!
15!
0K"
z7!
z8!
z9!
z:!
z;!
z<!
z=!
z>!
z?!
z@!
zA!
zB!
zC!
zD!
zE!
zF!
zG!
zH!
zI!
zJ!
zK!
zL!
zM!
zN!
zO!
zP!
zQ!
zR!
zS!
zT!
zU!
zV!
z3!
z2!
z1!
z0!
z/!
z.!
z-!
z,!
z+!
z*!
z)!
z(!
z'!
z&!
z%!
z$!
z#!
z"!
z!!
z~
z}
z|
z{
zz
zy
zx
zw
zv
zu
zt
zs
zr
zT
zS
zR
zQ
zP
zO
zN
zM
zL
zK
zJ
zI
zH
zG
zF
zE
zD
zC
zB
zA
z@
z?
z>
z=
z<
z;
z:
z9
z8
z7
z6
z5
#410000
0!
0`
05!
#420000
1!
1`
15!
#430000
0!
0`
05!
#440000
1!
1(
1`
1b
1b!
15!
#450000
0!
0`
05!
#460000
1!
1`
15!
#470000
0!
0`
05!
